﻿2021-06-15T00:30:01.2289304+02:00;VSTestExecutionThread;Info;SpecFlow+Runner execution started
2021-06-15T00:30:01.2291801+02:00;VSTestExecutionThread;Info;SpecFlow+Runner 3.8.12 in Framework netcore31 in x64 mode execution started
2021-06-15T00:30:01.2291884+02:00;VSTestExecutionThread;Info;TestAdapter Location: C:\Users\48511\source\repos\Calculator3\SpecFlowCalculator\bin\Debug\netcoreapp3.1\TechTalk.SpecRun.VisualStudio.TestAdapter.dll
2021-06-15T00:30:01.2318668+02:00;VSTestExecutionThread;Info;Current UserName: '48511', MachineName: 'LAPTOP-F6998QN4'
2021-06-15T00:30:01.2600583+02:00;VSTestExecutionThread;Info;SpecRun: running tests in C:\Users\48511\source\repos\Calculator3\SpecFlowCalculator\bin\Debug\netcoreapp3.1\SpecFlowCalculator.dll
2021-06-15T00:30:01.2602563+02:00;VSTestExecutionThread;Info;Output folder configured to "C:\Users\48511\source\repos\Calculator3\TestResults" (default)
2021-06-15T00:30:01.2603118+02:00;VSTestExecutionThread;Info;Profile: 
2021-06-15T00:30:01.2968987+02:00;VSTestExecutionThread;Info;Log file path: C:\Users\48511\source\repos\Calculator3\TestResults\Unnamed project__2021-06-15T003001.log
2021-06-15T00:30:01.3007393+02:00;Thread#12;Info;Checking activation
2021-06-15T00:30:02.9694430+02:00;Thread#12;Info;Activated.
2021-06-15T00:30:02.9699479+02:00;Thread#12;Info;Activation check completed
2021-06-15T00:30:02.9703133+02:00;Thread#12;Info;Starting test run
2021-06-15T00:30:02.9892076+02:00;Thread#12;Info;Discovering target: Default
2021-06-15T00:30:02.9894883+02:00;Thread#12;Info;Discovering tests from assembly: C:\Users\48511\source\repos\Calculator3\SpecFlowCalculator\bin\Debug\netcoreapp3.1\SpecFlowCalculator.dll
2021-06-15T00:30:03.0753740+02:00;Thread#12;Info;Discovered tests from assembly: C:\Users\48511\source\repos\Calculator3\SpecFlowCalculator\bin\Debug\netcoreapp3.1\SpecFlowCalculator.dll
2021-06-15T00:30:03.0764823+02:00:Test Suite Dump
2021-06-15T00:30:03.0778311+02:00:#0: Unnamed project/ - 
2021-06-15T00:30:03.0778533+02:00:#1: Default - 
2021-06-15T00:30:03.0778554+02:00:#2: SpecFlowCalculator - 
2021-06-15T00:30:03.0778569+02:00:#3: Calculator - 
2021-06-15T00:30:03.0787048+02:00:#4: Add two numbers - TestAssembly:SpecFlowCalculator/Feature:Calculator/Scenario:Add+two+numbers
2021-06-15T00:30:03.0787852+02:00:End: Test Suite Dump
2021-06-15T00:30:03.0935933+02:00:Thread#0:Scheduler: get next test for thread 0
2021-06-15T00:30:03.0955518+02:00:Thread#:Scheduler: testitem #4 from normal test queue 
2021-06-15T00:30:03.0956675+02:00:Thread#0:Scheduler: considering testitem #4 for thread 0
2021-06-15T00:30:03.0985438+02:00:Thread#0:TestItem#4:testItemMatchesCurrentTestThread:UnSpecific
2021-06-15T00:30:03.0985653+02:00:Thread#0:TestItem#4:runsOnOneOtherThreadSpecific:False
2021-06-15T00:30:03.0985673+02:00:Thread#0:TestItem#4:runsOnOneOtherThreadUnspecific:False
2021-06-15T00:30:03.0985719+02:00:Thread#0:Scheduler: using testitem #4 for thread 0
2021-06-15T00:30:03.0991017+02:00:Thread#0:Scheduler: Test #4 is scheduled for thread
2021-06-15T00:30:03.1000224+02:00:Thread#0:Scheduler: with testItemExecutionIndex 0
2021-06-15T00:30:03.1019615+02:00:Thread #0: creating new test thread executor for SpecFlowCalculator, Version=1.0.0.0, Culture=neutral, PublicKeyToken=null (target: Default)
2021-06-15T00:30:03.1039839+02:00:Thread #0: Creating test assembly executor for execution model OutProc
2021-06-15T00:30:03.1042529+02:00:Thread #0: Creating test assembly executor for execution model OutProc
2021-06-15T00:30:03.1418082+02:00:Thread #0: using TechTalk.SpecRun.Framework.Execution.OutOfProc.StreamJsonRPC.OutOfProcessTestAssemblyExecutorHost to execute tests
2021-06-15T00:30:03.1431524+02:00:starting Out Of Process Executor
2021-06-15T00:30:03.2020771+02:00:Assembly resolving Microsoft.VisualStudio.Validation, Version=15.3.0.0, Culture=neutral, PublicKeyToken=b03f5f7f11d50a3a
2021-06-15T00:30:03.2063187+02:00:[AssemblyCache] Trying to resolve 'Microsoft.VisualStudio.Validation' from .deps.json file
2021-06-15T00:30:03.2063505+02:00:[AssemblyCache] Could not resolve 'Microsoft.VisualStudio.Validation' from .deps.json
2021-06-15T00:30:03.2072731+02:00:[AssemblyCache] Trying to resolve 'Microsoft.VisualStudio.Validation' in folder 'C:\Users\48511\source\repos\Calculator3\SpecFlowCalculator\bin\Debug\netcoreapp3.1'
2021-06-15T00:30:03.2075983+02:00:[AssemblyCache] Trying to resolve 'Microsoft.VisualStudio.Validation' to 'C:\Users\48511\source\repos\Calculator3\SpecFlowCalculator\bin\Debug\netcoreapp3.1\Microsoft.VisualStudio.Validation.dll'
2021-06-15T00:30:03.2077345+02:00:[AssemblyCache] Trying to resolve 'Microsoft.VisualStudio.Validation' to 'C:\Users\48511\source\repos\Calculator3\SpecFlowCalculator\bin\Debug\netcoreapp3.1\Microsoft.VisualStudio.Validation.exe'
2021-06-15T00:30:03.2078014+02:00:[AssemblyCache] Could not resolve 'Microsoft.VisualStudio.Validation' in folder 'C:\Users\48511\source\repos\Calculator3\SpecFlowCalculator\bin\Debug\netcoreapp3.1'
2021-06-15T00:30:03.2080288+02:00:TargetFramework: .NETCoreApp,Version=v3.1
2021-06-15T00:30:03.2085132+02:00:Tfm: netcoreapp3.1
2021-06-15T00:30:03.2085262+02:00:[AssemblyCache] Trying to resolve 'Microsoft.VisualStudio.Validation' in folder 'C:\Users\48511\source\repos\Calculator3\SpecFlowCalculator\bin\Debug\netcoreapp3.1\SpecFlowPlusRunner\netcoreapp3.1'
2021-06-15T00:30:03.2085339+02:00:[AssemblyCache] Trying to resolve 'Microsoft.VisualStudio.Validation' to 'C:\Users\48511\source\repos\Calculator3\SpecFlowCalculator\bin\Debug\netcoreapp3.1\SpecFlowPlusRunner\netcoreapp3.1\Microsoft.VisualStudio.Validation.dll'
2021-06-15T00:30:03.2086389+02:00:[AssemblyCache] Found file 'C:\Users\48511\source\repos\Calculator3\SpecFlowCalculator\bin\Debug\netcoreapp3.1\SpecFlowPlusRunner\netcoreapp3.1\Microsoft.VisualStudio.Validation.dll' for assembly 'Microsoft.VisualStudio.Validation'
2021-06-15T00:30:03.2092664+02:00:[AssemblyCache] Resolved 'Microsoft.VisualStudio.Validation' to C:\Users\48511\source\repos\Calculator3\SpecFlowCalculator\bin\Debug\netcoreapp3.1\SpecFlowPlusRunner\netcoreapp3.1\Microsoft.VisualStudio.Validation.dll
2021-06-15T00:30:03.2104763+02:00:Starting callback TCP Rpc server
2021-06-15T00:30:03.2488187+02:00:Asynchronously starting background TCP Rpc Server on port 32768
2021-06-15T00:30:03.2492868+02:00:Started callback TCP Rpc server on port 32768
2021-06-15T00:30:03.2493024+02:00:Starting logger TCP Rpc server
2021-06-15T00:30:03.2511429+02:00:Asynchronously starting background TCP Rpc Server on port 32769
2021-06-15T00:30:03.2511776+02:00:Started logger TCP Rpc server on port 32769
2021-06-15T00:30:03.4054065+02:00:Executing test executor at 'dotnet' 'exec "C:\Users\48511\source\repos\Calculator3\SpecFlowCalculator\bin\Debug\netcoreapp3.1\SpecFlowPlusRunner\netcoreapp3.1\TechTalk.SpecRun.Framework.Executor.anycpu.netcoreapp3_1.dll" --remoteRunnerPid 15244 --uniqueId "2021-06-15T003001" --outputFolder "C:\Users\48511\source\repos\Calculator3\TestResults" --callbackPort 32768 --loggerPort 32769' in 'C:\Users\48511\source\repos\Calculator3\SpecFlowCalculator\bin\Debug\netcoreapp3.1'
2021-06-15T00:30:03.4970756+02:00:Executor with PID 5692 has been started successfully.
2021-06-15T00:30:03.5015905+02:00:Out of Process Executor 5692 started
2021-06-15T00:30:03.5016110+02:00:Waiting for endpoint
2021-06-15T00:30:03.8085425+02:00:Assembly resolving StreamJsonRpc.resources, Version=1.4.0.0, Culture=pl-PL, PublicKeyToken=b03f5f7f11d50a3a
2021-06-15T00:30:03.8085717+02:00:[AssemblyCache] Trying to resolve 'StreamJsonRpc.resources' from .deps.json file
2021-06-15T00:30:03.8085757+02:00:[AssemblyCache] Could not resolve 'StreamJsonRpc.resources' from .deps.json
2021-06-15T00:30:03.8085805+02:00:[AssemblyCache] Trying to resolve 'StreamJsonRpc.resources' in folder 'C:\Users\48511\source\repos\Calculator3\SpecFlowCalculator\bin\Debug\netcoreapp3.1'
2021-06-15T00:30:03.8085833+02:00:[AssemblyCache] Trying to resolve 'StreamJsonRpc.resources' to 'C:\Users\48511\source\repos\Calculator3\SpecFlowCalculator\bin\Debug\netcoreapp3.1\StreamJsonRpc.resources.dll'
2021-06-15T00:30:03.8086387+02:00:[AssemblyCache] Trying to resolve 'StreamJsonRpc.resources' to 'C:\Users\48511\source\repos\Calculator3\SpecFlowCalculator\bin\Debug\netcoreapp3.1\StreamJsonRpc.resources.exe'
2021-06-15T00:30:03.8086905+02:00:[AssemblyCache] Could not resolve 'StreamJsonRpc.resources' in folder 'C:\Users\48511\source\repos\Calculator3\SpecFlowCalculator\bin\Debug\netcoreapp3.1'
2021-06-15T00:30:03.8086958+02:00:TargetFramework: .NETCoreApp,Version=v3.1
2021-06-15T00:30:03.8087221+02:00:Tfm: netcoreapp3.1
2021-06-15T00:30:03.8087265+02:00:[AssemblyCache] Trying to resolve 'StreamJsonRpc.resources' in folder 'C:\Users\48511\source\repos\Calculator3\SpecFlowCalculator\bin\Debug\netcoreapp3.1\SpecFlowPlusRunner\netcoreapp3.1'
2021-06-15T00:30:03.8087288+02:00:[AssemblyCache] Trying to resolve 'StreamJsonRpc.resources' to 'C:\Users\48511\source\repos\Calculator3\SpecFlowCalculator\bin\Debug\netcoreapp3.1\SpecFlowPlusRunner\netcoreapp3.1\StreamJsonRpc.resources.dll'
2021-06-15T00:30:03.8088019+02:00:[AssemblyCache] Trying to resolve 'StreamJsonRpc.resources' to 'C:\Users\48511\source\repos\Calculator3\SpecFlowCalculator\bin\Debug\netcoreapp3.1\SpecFlowPlusRunner\netcoreapp3.1\StreamJsonRpc.resources.exe'
2021-06-15T00:30:03.8088629+02:00:[AssemblyCache] Could not resolve 'StreamJsonRpc.resources' in folder 'C:\Users\48511\source\repos\Calculator3\SpecFlowCalculator\bin\Debug\netcoreapp3.1\SpecFlowPlusRunner\netcoreapp3.1'
2021-06-15T00:30:03.8177465+02:00:[AssemblyCache] Trying to resolve 'StreamJsonRpc.resources' in folder 'C:\Program Files\dotnet\shared\Microsoft.AspNetCore.App\3.1.12'
2021-06-15T00:30:03.8177692+02:00:[AssemblyCache] Trying to resolve 'StreamJsonRpc.resources' to 'C:\Program Files\dotnet\shared\Microsoft.AspNetCore.App\3.1.12\StreamJsonRpc.resources.dll'
2021-06-15T00:30:03.8183538+02:00:[AssemblyCache] Trying to resolve 'StreamJsonRpc.resources' to 'C:\Program Files\dotnet\shared\Microsoft.AspNetCore.App\3.1.12\StreamJsonRpc.resources.exe'
2021-06-15T00:30:03.8184321+02:00:[AssemblyCache] Could not resolve 'StreamJsonRpc.resources' in folder 'C:\Program Files\dotnet\shared\Microsoft.AspNetCore.App\3.1.12'
2021-06-15T00:30:03.8186193+02:00:[AssemblyCache] Trying to resolve 'StreamJsonRpc.resources' in folder 'C:\Program Files\dotnet\shared\Microsoft.NETCore.App\3.1.12'
2021-06-15T00:30:03.8186292+02:00:[AssemblyCache] Trying to resolve 'StreamJsonRpc.resources' to 'C:\Program Files\dotnet\shared\Microsoft.NETCore.App\3.1.12\StreamJsonRpc.resources.dll'
2021-06-15T00:30:03.8186676+02:00:[AssemblyCache] Trying to resolve 'StreamJsonRpc.resources' to 'C:\Program Files\dotnet\shared\Microsoft.NETCore.App\3.1.12\StreamJsonRpc.resources.exe'
2021-06-15T00:30:03.8186945+02:00:[AssemblyCache] Could not resolve 'StreamJsonRpc.resources' in folder 'C:\Program Files\dotnet\shared\Microsoft.NETCore.App\3.1.12'
2021-06-15T00:30:03.8194337+02:00:[AssemblyCache] Trying to resolve 'StreamJsonRpc.resources' in folder 'C:\Program Files\dotnet\shared\Microsoft.WindowsDesktop.App\3.1.12'
2021-06-15T00:30:03.8194706+02:00:[AssemblyCache] Trying to resolve 'StreamJsonRpc.resources' to 'C:\Program Files\dotnet\shared\Microsoft.WindowsDesktop.App\3.1.12\StreamJsonRpc.resources.dll'
2021-06-15T00:30:03.8201022+02:00:[AssemblyCache] Trying to resolve 'StreamJsonRpc.resources' to 'C:\Program Files\dotnet\shared\Microsoft.WindowsDesktop.App\3.1.12\StreamJsonRpc.resources.exe'
2021-06-15T00:30:03.8202209+02:00:[AssemblyCache] Could not resolve 'StreamJsonRpc.resources' in folder 'C:\Program Files\dotnet\shared\Microsoft.WindowsDesktop.App\3.1.12'
2021-06-15T00:30:03.8212602+02:00:Assembly resolving StreamJsonRpc.resources, Version=1.4.0.0, Culture=pl, PublicKeyToken=b03f5f7f11d50a3a
2021-06-15T00:30:03.8219720+02:00:Assembly resolving Microsoft.VisualStudio.Threading, Version=15.3.0.0, Culture=neutral, PublicKeyToken=b03f5f7f11d50a3a
2021-06-15T00:30:03.8219886+02:00:[AssemblyCache] Trying to resolve 'Microsoft.VisualStudio.Threading' from .deps.json file
2021-06-15T00:30:03.8219911+02:00:[AssemblyCache] Could not resolve 'Microsoft.VisualStudio.Threading' from .deps.json
2021-06-15T00:30:03.8220018+02:00:[AssemblyCache] Trying to resolve 'Microsoft.VisualStudio.Threading' in folder 'C:\Users\48511\source\repos\Calculator3\SpecFlowCalculator\bin\Debug\netcoreapp3.1'
2021-06-15T00:30:03.8220134+02:00:[AssemblyCache] Trying to resolve 'Microsoft.VisualStudio.Threading' to 'C:\Users\48511\source\repos\Calculator3\SpecFlowCalculator\bin\Debug\netcoreapp3.1\Microsoft.VisualStudio.Threading.dll'
2021-06-15T00:30:03.8220610+02:00:[AssemblyCache] Trying to resolve 'Microsoft.VisualStudio.Threading' to 'C:\Users\48511\source\repos\Calculator3\SpecFlowCalculator\bin\Debug\netcoreapp3.1\Microsoft.VisualStudio.Threading.exe'
2021-06-15T00:30:03.8221030+02:00:[AssemblyCache] Could not resolve 'Microsoft.VisualStudio.Threading' in folder 'C:\Users\48511\source\repos\Calculator3\SpecFlowCalculator\bin\Debug\netcoreapp3.1'
2021-06-15T00:30:03.8221124+02:00:TargetFramework: .NETCoreApp,Version=v3.1
2021-06-15T00:30:03.8221272+02:00:Tfm: netcoreapp3.1
2021-06-15T00:30:03.8221315+02:00:[AssemblyCache] Trying to resolve 'Microsoft.VisualStudio.Threading' in folder 'C:\Users\48511\source\repos\Calculator3\SpecFlowCalculator\bin\Debug\netcoreapp3.1\SpecFlowPlusRunner\netcoreapp3.1'
2021-06-15T00:30:03.8221384+02:00:[AssemblyCache] Trying to resolve 'Microsoft.VisualStudio.Threading' to 'C:\Users\48511\source\repos\Calculator3\SpecFlowCalculator\bin\Debug\netcoreapp3.1\SpecFlowPlusRunner\netcoreapp3.1\Microsoft.VisualStudio.Threading.dll'
2021-06-15T00:30:03.8222226+02:00:[AssemblyCache] Found file 'C:\Users\48511\source\repos\Calculator3\SpecFlowCalculator\bin\Debug\netcoreapp3.1\SpecFlowPlusRunner\netcoreapp3.1\Microsoft.VisualStudio.Threading.dll' for assembly 'Microsoft.VisualStudio.Threading'
2021-06-15T00:30:03.8229001+02:00:[AssemblyCache] Resolved 'Microsoft.VisualStudio.Threading' to C:\Users\48511\source\repos\Calculator3\SpecFlowCalculator\bin\Debug\netcoreapp3.1\SpecFlowPlusRunner\netcoreapp3.1\Microsoft.VisualStudio.Threading.dll
2021-06-15T00:30:04.8789275+02:00:Remote executor port received: 32770
2021-06-15T00:30:04.8792789+02:00:Creating executor TCP client on port 32770
2021-06-15T00:30:04.8798372+02:00:Created executor TCP client on port 32770
2021-06-15T00:30:04.8798589+02:00:Connecting to remote executor TCP server
2021-06-15T00:30:04.8809802+02:00:Connected remote executor TCP server
2021-06-15T00:30:04.8812638+02:00:trying to connect to Out of Process Executor the 1 attempt
2021-06-15T00:30:04.8812797+02:00:Connection to Out of Process Executor established in the 1 attempt
2021-06-15T00:30:05.0194245+02:00:2021-06-15T00:30:05.0182764+02:00:OutOfProcessTestAssemblyExecutor: initialized for C:\Users\48511\source\repos\Calculator3\SpecFlowCalculator\bin\Debug\netcoreapp3.1\SpecFlowCalculator.dll on test thread #0
2021-06-15T00:30:05.0248626+02:00:Endpoint 5692 started
2021-06-15T00:30:05.0413224+02:00:2021-06-15T00:30:05.0408935+02:00:OutOfProcessTestAssemblyExecutor: running tests...
2021-06-15T00:30:05.1415447+02:00:2021-06-15T00:30:05.1411285+02:00:Assembly resolving TechTalk.SpecFlow, Version=3.8.0.0, Culture=neutral, PublicKeyToken=0778194805d6db41
2021-06-15T00:30:05.1441867+02:00:2021-06-15T00:30:05.1437809+02:00:[AssemblyCache] Trying to resolve 'TechTalk.SpecFlow' from .deps.json file
2021-06-15T00:30:05.1468503+02:00:2021-06-15T00:30:05.1464401+02:00:[AssemblyCache] Resolved 'TechTalk.SpecFlow' to 'C:\Users\48511\.nuget\packages\specflow\3.8.7\lib\netstandard2.0\TechTalk.SpecFlow.dll'
2021-06-15T00:30:05.2572694+02:00:2021-06-15T00:30:05.2560174+02:00:Thread#0:T:-> Loading plugin C:\Users\48511\source\repos\Calculator3\SpecFlowCalculator\bin\Debug\netcoreapp3.1\SpecFlowCalculator.dll
2021-06-15T00:30:05.2615030+02:00:2021-06-15T00:30:05.2594974+02:00:Assembly resolving Microsoft.Extensions.DependencyModel, Version=1.0.1.0, Culture=neutral, PublicKeyToken=adb9793829ddae60
2021-06-15T00:30:05.2649380+02:00:2021-06-15T00:30:05.2622567+02:00:[AssemblyCache] Trying to resolve 'Microsoft.Extensions.DependencyModel' from .deps.json file
2021-06-15T00:30:05.2710342+02:00:2021-06-15T00:30:05.2659267+02:00:[AssemblyCache] Resolved 'Microsoft.Extensions.DependencyModel' to 'C:\Users\48511\.nuget\packages\microsoft.extensions.dependencymodel\1.0.3\lib\netstandard1.6\Microsoft.Extensions.DependencyModel.dll'
2021-06-15T00:30:05.3151899+02:00:2021-06-15T00:30:05.3142515+02:00:Assembly resolving Microsoft.DotNet.PlatformAbstractions, Version=1.0.1.0, Culture=neutral, PublicKeyToken=adb9793829ddae60
2021-06-15T00:30:05.3157736+02:00:2021-06-15T00:30:05.3155374+02:00:[AssemblyCache] Trying to resolve 'Microsoft.DotNet.PlatformAbstractions' from .deps.json file
2021-06-15T00:30:05.3164258+02:00:2021-06-15T00:30:05.3161534+02:00:[AssemblyCache] Resolved 'Microsoft.DotNet.PlatformAbstractions' to 'C:\Users\48511\.nuget\packages\microsoft.dotnet.platformabstractions\1.0.3\lib\netstandard1.3\Microsoft.DotNet.PlatformAbstractions.dll'
2021-06-15T00:30:05.3244554+02:00:2021-06-15T00:30:05.3240826+02:00:Thread#0:T:-> Missing [assembly:RuntimePlugin] attribute in SpecFlowCalculator, Version=1.0.0.0, Culture=neutral, PublicKeyToken=null. Please check https://go.specflow.org/doc-plugins for details.
2021-06-15T00:30:05.3250130+02:00:2021-06-15T00:30:05.3247453+02:00:Thread#0:T:-> Loading plugin C:\Users\48511\source\repos\Calculator3\SpecFlowCalculator\bin\Debug\netcoreapp3.1\LivingDoc.SpecFlowPlugin.dll
2021-06-15T00:30:05.3284556+02:00:2021-06-15T00:30:05.3280411+02:00:Assembly resolving LivingDoc.Dtos, Version=3.8.0.0, Culture=neutral, PublicKeyToken=null
2021-06-15T00:30:05.3289049+02:00:2021-06-15T00:30:05.3286902+02:00:[AssemblyCache] Trying to resolve 'LivingDoc.Dtos' from .deps.json file
2021-06-15T00:30:05.3295507+02:00:2021-06-15T00:30:05.3293161+02:00:[AssemblyCache] Resolved 'LivingDoc.Dtos' to 'C:\Users\48511\.nuget\packages\specflow.plus.livingdocplugin\3.8.35\lib\netstandard2.0\LivingDoc.Dtos.dll'
2021-06-15T00:30:05.3326671+02:00:2021-06-15T00:30:05.3322715+02:00:Thread#0:T:-> Loading plugin C:\Users\48511\source\repos\Calculator3\SpecFlowCalculator\bin\Debug\netcoreapp3.1\SpecRun.Runtime.SpecFlowPlugin.dll
2021-06-15T00:30:05.3427229+02:00:2021-06-15T00:30:05.3423516+02:00:Thread#0:T:-> Using default config
2021-06-15T00:30:05.3518194+02:00:2021-06-15T00:30:05.3513378+02:00:Assembly resolving Cucumber.Messages, Version=6.0.1.0, Culture=neutral, PublicKeyToken=b10c5988214f940c
2021-06-15T00:30:05.3523132+02:00:2021-06-15T00:30:05.3520596+02:00:[AssemblyCache] Trying to resolve 'Cucumber.Messages' from .deps.json file
2021-06-15T00:30:05.3529764+02:00:2021-06-15T00:30:05.3526719+02:00:[AssemblyCache] Resolved 'Cucumber.Messages' to 'C:\Users\48511\.nuget\packages\cucumber.messages\6.0.1\lib\netstandard2.0\Cucumber.Messages.dll'
2021-06-15T00:30:05.3572176+02:00:2021-06-15T00:30:05.3568421+02:00:Assembly resolving Google.Protobuf, Version=3.7.0.0, Culture=neutral, PublicKeyToken=a7d26565bac4d604
2021-06-15T00:30:05.3576872+02:00:2021-06-15T00:30:05.3574168+02:00:[AssemblyCache] Trying to resolve 'Google.Protobuf' from .deps.json file
2021-06-15T00:30:05.3582651+02:00:2021-06-15T00:30:05.3580124+02:00:[AssemblyCache] Resolved 'Google.Protobuf' to 'C:\Users\48511\.nuget\packages\google.protobuf\3.7.0\lib\netstandard1.0\Google.Protobuf.dll'
2021-06-15T00:30:05.3664020+02:00:2021-06-15T00:30:05.3660250+02:00:Assembly resolving Microsoft.VisualStudio.TestPlatform.ObjectModel, Version=15.0.0.0, Culture=neutral, PublicKeyToken=b03f5f7f11d50a3a
2021-06-15T00:30:05.3668698+02:00:2021-06-15T00:30:05.3666145+02:00:[AssemblyCache] Trying to resolve 'Microsoft.VisualStudio.TestPlatform.ObjectModel' from .deps.json file
2021-06-15T00:30:05.3675361+02:00:2021-06-15T00:30:05.3672927+02:00:[AssemblyCache] Resolved 'Microsoft.VisualStudio.TestPlatform.ObjectModel' to 'C:\Users\48511\.nuget\packages\microsoft.testplatform.objectmodel\16.5.0\lib\netstandard2.0\Microsoft.VisualStudio.TestPlatform.ObjectModel.dll'
2021-06-15T00:30:05.4003555+02:00:2021-06-15T00:30:05.3999660+02:00:Assembly resolving Utf8Json, Version=1.3.7.0, Culture=neutral, PublicKeyToken=8a73d3ba7e392e27
2021-06-15T00:30:05.4008168+02:00:2021-06-15T00:30:05.4005975+02:00:[AssemblyCache] Trying to resolve 'Utf8Json' from .deps.json file
2021-06-15T00:30:05.4014100+02:00:2021-06-15T00:30:05.4011842+02:00:[AssemblyCache] Resolved 'Utf8Json' to 'C:\Users\48511\.nuget\packages\utf8json\1.3.7\lib\netstandard2.0\Utf8Json.dll'
2021-06-15T00:30:05.5960345+02:00:Thread#0: Test #4/0 is started on thread #0
2021-06-15T00:30:05.6225387+02:00:2021-06-15T00:30:05.6195511+02:00:Thread#0:B:Given the first number is 50
2021-06-15T00:30:05.6477328+02:00:2021-06-15T00:30:05.6471984+02:00:Thread#0:T:50
2021-06-15T00:30:05.6567380+02:00:2021-06-15T00:30:05.6563265+02:00:Thread#0:T:done: CalculatorStepDefinitions.GivenTheFirstNumberIs(50) (0,0s)
2021-06-15T00:30:05.6602256+02:00:2021-06-15T00:30:05.6597744+02:00:Thread#0:B:And the second number is 70
2021-06-15T00:30:05.6621135+02:00:2021-06-15T00:30:05.6617240+02:00:Thread#0:T:70
2021-06-15T00:30:05.6628612+02:00:2021-06-15T00:30:05.6625614+02:00:Thread#0:T:done: CalculatorStepDefinitions.GivenTheSecondNumberIs(70) (0,0s)
2021-06-15T00:30:05.6639526+02:00:2021-06-15T00:30:05.6635160+02:00:Thread#0:B:When the two numbers are added
2021-06-15T00:30:05.6661270+02:00:2021-06-15T00:30:05.6655651+02:00:Thread#0:T:Push ADD
2021-06-15T00:30:05.6669895+02:00:2021-06-15T00:30:05.6666570+02:00:Thread#0:T:done: CalculatorStepDefinitions.WhenTheTwoNumbersAreAdded() (0,0s)
2021-06-15T00:30:05.6678963+02:00:2021-06-15T00:30:05.6675335+02:00:Thread#0:B:Then the result should be 120
2021-06-15T00:30:05.6694126+02:00:2021-06-15T00:30:05.6690631+02:00:Thread#0:T:Passed test
2021-06-15T00:30:05.6700641+02:00:2021-06-15T00:30:05.6697823+02:00:Thread#0:T:done: CalculatorStepDefinitions.ThenTheResultShouldBe(120) (0,0s)
2021-06-15T00:30:06.3810227+02:00:Thread#0:Scheduler: get next test for thread 0
2021-06-15T00:30:06.3811546+02:00:Thread#:Scheduler: at the end of normal test queue
2021-06-15T00:30:06.3811753+02:00:Thread#0:Scheduler: enumerator for thread is at end
2021-06-15T00:30:06.3811886+02:00:Thread#0:Scheduler: No more tests for thread
2021-06-15T00:30:06.4339059+02:00:Thread#0: Test #4/0 is finished on thread #0 as Succeeded within 0,8368924 seconds
2021-06-15T00:30:06.4431078+02:00:2021-06-15T00:30:06.4427426+02:00:Got Deinitialize Signal
2021-06-15T00:30:06.4466871+02:00:RPC Client disconnected, because 'Disposed'. 
LastMessage: 
Description:Stream has been disposed
Exception:<none>
2021-06-15T00:30:06.4473666+02:00:RPC Server disconnected, because 'Disposed'. 
LastMessage: 
Description:Reached end of stream.
Exception:<none>
2021-06-15T00:30:06.4491199+02:00:RPC Server disconnected, because 'Disposed'. 
LastMessage: 
Description:Reached end of stream.
Exception:<none>
2021-06-15T00:30:06.4508372+02:00:Assembly resolving System.Diagnostics.Process.resources, Version=4.2.2.0, Culture=pl-PL, PublicKeyToken=b03f5f7f11d50a3a
2021-06-15T00:30:06.4508734+02:00:[AssemblyCache] Trying to resolve 'System.Diagnostics.Process.resources' from .deps.json file
2021-06-15T00:30:06.4508797+02:00:[AssemblyCache] Could not resolve 'System.Diagnostics.Process.resources' from .deps.json
2021-06-15T00:30:06.4508858+02:00:[AssemblyCache] Trying to resolve 'System.Diagnostics.Process.resources' in folder 'C:\Users\48511\source\repos\Calculator3\SpecFlowCalculator\bin\Debug\netcoreapp3.1'
2021-06-15T00:30:06.4508985+02:00:[AssemblyCache] Trying to resolve 'System.Diagnostics.Process.resources' to 'C:\Users\48511\source\repos\Calculator3\SpecFlowCalculator\bin\Debug\netcoreapp3.1\System.Diagnostics.Process.resources.dll'
2021-06-15T00:30:06.4509552+02:00:[AssemblyCache] Trying to resolve 'System.Diagnostics.Process.resources' to 'C:\Users\48511\source\repos\Calculator3\SpecFlowCalculator\bin\Debug\netcoreapp3.1\System.Diagnostics.Process.resources.exe'
2021-06-15T00:30:06.4509959+02:00:[AssemblyCache] Could not resolve 'System.Diagnostics.Process.resources' in folder 'C:\Users\48511\source\repos\Calculator3\SpecFlowCalculator\bin\Debug\netcoreapp3.1'
2021-06-15T00:30:06.4510049+02:00:TargetFramework: .NETCoreApp,Version=v3.1
2021-06-15T00:30:06.4510658+02:00:Tfm: netcoreapp3.1
2021-06-15T00:30:06.4510756+02:00:[AssemblyCache] Trying to resolve 'System.Diagnostics.Process.resources' in folder 'C:\Users\48511\source\repos\Calculator3\SpecFlowCalculator\bin\Debug\netcoreapp3.1\SpecFlowPlusRunner\netcoreapp3.1'
2021-06-15T00:30:06.4510827+02:00:[AssemblyCache] Trying to resolve 'System.Diagnostics.Process.resources' to 'C:\Users\48511\source\repos\Calculator3\SpecFlowCalculator\bin\Debug\netcoreapp3.1\SpecFlowPlusRunner\netcoreapp3.1\System.Diagnostics.Process.resources.dll'
2021-06-15T00:30:06.4511466+02:00:[AssemblyCache] Trying to resolve 'System.Diagnostics.Process.resources' to 'C:\Users\48511\source\repos\Calculator3\SpecFlowCalculator\bin\Debug\netcoreapp3.1\SpecFlowPlusRunner\netcoreapp3.1\System.Diagnostics.Process.resources.exe'
2021-06-15T00:30:06.4557852+02:00:[AssemblyCache] Could not resolve 'System.Diagnostics.Process.resources' in folder 'C:\Users\48511\source\repos\Calculator3\SpecFlowCalculator\bin\Debug\netcoreapp3.1\SpecFlowPlusRunner\netcoreapp3.1'
2021-06-15T00:30:06.4567793+02:00:[AssemblyCache] Trying to resolve 'System.Diagnostics.Process.resources' in folder 'C:\Program Files\dotnet\shared\Microsoft.AspNetCore.App\3.1.12'
2021-06-15T00:30:06.4568035+02:00:[AssemblyCache] Trying to resolve 'System.Diagnostics.Process.resources' to 'C:\Program Files\dotnet\shared\Microsoft.AspNetCore.App\3.1.12\System.Diagnostics.Process.resources.dll'
2021-06-15T00:30:06.4568882+02:00:[AssemblyCache] Trying to resolve 'System.Diagnostics.Process.resources' to 'C:\Program Files\dotnet\shared\Microsoft.AspNetCore.App\3.1.12\System.Diagnostics.Process.resources.exe'
2021-06-15T00:30:06.4569415+02:00:[AssemblyCache] Could not resolve 'System.Diagnostics.Process.resources' in folder 'C:\Program Files\dotnet\shared\Microsoft.AspNetCore.App\3.1.12'
2021-06-15T00:30:06.4571255+02:00:[AssemblyCache] Trying to resolve 'System.Diagnostics.Process.resources' in folder 'C:\Program Files\dotnet\shared\Microsoft.NETCore.App\3.1.12'
2021-06-15T00:30:06.4571369+02:00:[AssemblyCache] Trying to resolve 'System.Diagnostics.Process.resources' to 'C:\Program Files\dotnet\shared\Microsoft.NETCore.App\3.1.12\System.Diagnostics.Process.resources.dll'
2021-06-15T00:30:06.4571959+02:00:[AssemblyCache] Trying to resolve 'System.Diagnostics.Process.resources' to 'C:\Program Files\dotnet\shared\Microsoft.NETCore.App\3.1.12\System.Diagnostics.Process.resources.exe'
2021-06-15T00:30:06.4572471+02:00:[AssemblyCache] Could not resolve 'System.Diagnostics.Process.resources' in folder 'C:\Program Files\dotnet\shared\Microsoft.NETCore.App\3.1.12'
2021-06-15T00:30:06.4574382+02:00:[AssemblyCache] Trying to resolve 'System.Diagnostics.Process.resources' in folder 'C:\Program Files\dotnet\shared\Microsoft.WindowsDesktop.App\3.1.12'
2021-06-15T00:30:06.4574492+02:00:[AssemblyCache] Trying to resolve 'System.Diagnostics.Process.resources' to 'C:\Program Files\dotnet\shared\Microsoft.WindowsDesktop.App\3.1.12\System.Diagnostics.Process.resources.dll'
2021-06-15T00:30:06.4577525+02:00:[AssemblyCache] Trying to resolve 'System.Diagnostics.Process.resources' to 'C:\Program Files\dotnet\shared\Microsoft.WindowsDesktop.App\3.1.12\System.Diagnostics.Process.resources.exe'
2021-06-15T00:30:06.4578417+02:00:[AssemblyCache] Could not resolve 'System.Diagnostics.Process.resources' in folder 'C:\Program Files\dotnet\shared\Microsoft.WindowsDesktop.App\3.1.12'
2021-06-15T00:30:06.4582219+02:00:Assembly resolving System.Diagnostics.Process.resources, Version=4.2.2.0, Culture=pl, PublicKeyToken=b03f5f7f11d50a3a
2021-06-15T00:30:06.4650910+02:00:Thread#-1:Scheduler: get next test for thread -1
2021-06-15T00:30:06.4651320+02:00:Thread#:Scheduler: at the end of normal test queue
2021-06-15T00:30:06.4651357+02:00:Thread#-1:Scheduler: enumerator for thread is at end
2021-06-15T00:30:06.4665268+02:00;Thread#12;Info;test run finished
2021-06-15T00:30:06.4666986+02:00;Thread#12;Info;publishing test results
2021-06-15T00:30:06.4668713+02:00;Thread#12;Info;Not publishing results.
2021-06-15T00:30:06.4669481+02:00;Thread#12;Info;test results published
2021-06-15T00:30:06.4670003+02:00;Thread#12;Info;generating reports
2021-06-15T00:30:06.5500842+02:00;Thread#12;Info;Starting external report generation process
2021-06-15T00:30:08.8115525+02:00;Thread#12;Info;Successfully generated reports.
2021-06-15T00:30:08.8149024+02:00;Thread#12;Info;Successfully generated reports
2021-06-15T00:30:08.8221133+02:00:Total: 1
2021-06-15T00:30:08.8235232+02:00:Succeeded: 1
2021-06-15T00:30:08.8237991+02:00:Ignored: 0
2021-06-15T00:30:08.8240153+02:00:Pending: 0
2021-06-15T00:30:08.8240258+02:00:Skipped: 0
2021-06-15T00:30:08.8242093+02:00:Failed: 0
2021-06-15T00:30:08.8291525+02:00;VSTestExecutionThread;Info;Adding attachments to VSTest
2021-06-15T00:30:08.8295293+02:00;VSTestExecutionThread;Info;adding Test Execution Report 'C:\Users\48511\source\repos\Calculator3\TestResults\Unnamed project__2021-06-15T003001.html'
========== End of log file ==========
